a: 9.28%
b: 0.97%
c: 2.98%
d: 3.80%
e: 10.07%
f: 0.48%
g: 0.83%
h: 0.67%
i: 4.72%
j: 0.29%
k: 0.01%
l: 4.15%
m: 2.14%
n: 5.23%
o: 7.32%
p: 2.04%
q: 0.91%
r: 5.13%
s: 6.47%
t: 3.20%
u: 3.32%
v: 0.75%
w: 0.01%
x: 0.08%
y: 0.78%
z: 0.25%
